4 historical spelling
…
!NB LARS - TJEK LIGE AT INTERVALLERNE ER DE SAMME!

# Add a column with a grouping of years - interval of 5 years
subset <- subset %>% 
  mutate(year_group = cut(year_st, breaks = seq(from = 1600, to= 1900, by= 5))) 

# Group by 'year_group', aggregate the 'title' column, and send back to dataframe
grouped_subset <- subset %>% 
  group_by(year_group) %>% 
  summarise(title = paste(title, collapse = " "))

grouped_subset

# A tibble: 60 × 2
   year_group  title                                                            
   <fct>       <chr>                                                            
 1 (1600,1605] En Undervisning aff den Hellige scrifft, hvad mand døme skal om …
 2 (1605,1610] [Almanakker 1606, 1641, 1652-54]. Gradual : en almindelig Sangbo…
 3 (1610,1615] XXXIIII Christelige oc skøne Liigpredickener udi hvilcke der fin…
 4 (1615,1620] En liden nyttig Haandbog : indeholdendis allehaande gudelige Exc…
 5 (1620,1625] Poenitentzis Graad, met trende Hierte Rob, høyelige fornøden i d…
 6 (1625,1630] [Den ny danske Psalmebog] / [Hans Thomissøn]. Anser Martiniana, …
 7 (1630,1635] Hussholdings Calender om hvad en Hussholder til sin Aufl, Fructe…
 8 (1635,1640] Collegium Philosophorum. Hedenske Philosophia eller Vijsdom. Udi…
 9 (1640,1645] Told-Rulle udi Øresund, huor effter annammis Told aff de Engelsk…
10 (1645,1650] En konstig oc artig ny Regne-Bog, udi Tall, Maader, Vect oc Pend…
# ℹ 50 more rows

# Count how many times a certain word appears in the titles
grouped_subset <- 
  grouped_subset %>% 
  mutate(title = str_to_lower(title)) %>% 
  mutate(antal_ord = str_count(title, '\\w+'),
        rejse = str_count(title, "rejse")/antal_ord,
         reise = str_count(title, "reise")/antal_ord, 
         reyse = str_count(title, "reyse")/antal_ord) %>% 
  select(-antal_ord)

# Inspect the dataset
grouped_subset

# A tibble: 60 × 5
   year_group  title                                       rejse   reise   reyse
   <fct>       <chr>                                       <dbl>   <dbl>   <dbl>
 1 (1600,1605] en undervisning aff den hellige scrifft,… 0       0       0      
 2 (1605,1610] [almanakker 1606, 1641, 1652-54]. gradua… 0       5.51e-4 2.75e-4
 3 (1610,1615] xxxiiii christelige oc skøne liigpredick… 0       0       5.14e-4
 4 (1615,1620] en liden nyttig haandbog : indeholdendis… 0       0       0      
 5 (1620,1625] poenitentzis graad, met trende hierte ro… 0       0       1.30e-3
 6 (1625,1630] [den ny danske psalmebog] / [hans thomis… 0       1.89e-4 0      
 7 (1630,1635] hussholdings calender om hvad en husshol… 0       0       1.51e-4
 8 (1635,1640] collegium philosophorum. hedenske philos… 2.09e-4 0       4.17e-4
 9 (1640,1645] told-rulle udi øresund, huor effter anna… 0       2.48e-4 1.24e-4
10 (1645,1650] en konstig oc artig ny regne-bog, udi ta… 0       1.92e-4 0      
# ℹ 50 more rows
…
